/* XPM */
static char *shade_prelight_png[] = {
/* columns rows colors chars-per-pixel */
"34 36 52 1 ",
"  c #2E3436",
". c #828585",
"X c #828586",
"o c #91918C",
"O c #8D9091",
"+ c #929596",
"@ c #939697",
"# c #9D9D99",
"$ c #B6B6B2",
"% c #B6B6B3",
"& c #BABAB7",
"* c #BEBEBB",
"= c #C3C3C0",
"- c #C7C7C4",
"; c #D4D4D3",
": c #D5D5D3",
"> c #DADAD9",
", c #DCDCDB",
"< c #DEDEDD",
"1 c #DFDFDE",
"2 c #E0E0DF",
"3 c #E1E1E0",
"4 c #E2E2E1",
"5 c #E3E3E2",
"6 c #E4E4E3",
"7 c #E5E5E4",
"8 c #E6E6E5",
"9 c #E7E7E6",
"0 c #E8E8E7",
"q c #E9E9E8",
"w c #EAEAE9",
"e c #EBEBEA",
"r c gray92",
"t c #ECECEB",
"y c #ECECEC",
"u c gray93",
"i c #EEEEED",
"p c #EFEFEE",
"a c #F0F0EF",
"s c gray94",
"d c #F1F1F1",
"f c gray95",
"g c #F3F3F2",
"h c #F3F3F3",
"j c #F4F4F4",
"k c gray96",
"l c #F6F6F6",
"z c gray97",
"x c #F8F8F7",
"c c gray98",
"v c white",
"b c None",
/* pixels */
"bbbbbbbbbbbbbbbbbbbbbbbbbbbbbbbbbb",
"b:&%%%%%%%%%%%%%%%%%%%%%%%%%%%%&:b",
":-cvvvvvvvvvvvvvvvvvvvvvvvvvvvvc-:",
"&xzllllllllllllllllllllllllllllzh&",
"%lkkkkkkkkkkkkkkkkkkkkkkkkkkkkkkl%",
"%jjjjjjjjjjjjjjjjjjjjjjjjjjjjjjjj%",
"%hhhhhhhhhhhhhhhhhhhhhhhhhhhhhhhh%",
"%gggggggggggggggggggggggggggggggg%",
"%ffffffffffffffffffffffffffffffff%",
"%dddddddddddddddddddddddddddddddd%",
"%ssssssssssssssssssssssssssssssss%",
"%aaaaaaaaaaaaaaaaaaaaaaaaaaaaaaaa%",
"%pppppppppppppppppppppppppppppppp%",
"%iiiiiiiiiiiiiiiiiiiiiiiiiiiiiiii%",
"%uuuuuuuuuuuuuuuuuuuuuuuuuuuuuuuu%",
"%yyyyyyyyyyyyyyy.Oryyyyyyyyyyyyyy%",
"%tttttttttttttt.  @ettttttttttttt%",
"%eeeeeeeeeeeeeX    @eeeeeeeeeeeee%",
"%wwwwwwwwwwwwX      @wwwwwwwwwwww%",
"%qqqqqqqqqqqX        +wqqqqqqqqqq%",
"%qqqqqqqqqqqqqqqqqqqqqqqqqqqqqqqq%",
"%00000000000000000000000000000000%",
"%99999999999999999999999999999999%",
"%88888888888888888888888888888888%",
"%77777777777777777777777777777777%",
"%77777777777777777777777777777777%",
"%66666666666666666666666666666666%",
"%55555555555555555555555555555555%",
"%44444444444444444444444444444444%",
"%44444444444444444444444444444444%",
"%33333333333333333333333333333333%",
"%22222222222222222222222222222222%",
"&,111111111111111111111111111111>*",
":&;<<<<<<<<<<<<<<<<<<<<<<<<<<<<;$:",
"b=#oooooooooooooooooooooooooooo#=b",
"bbbbbbbbbbbbbbbbbbbbbbbbbbbbbbbbbb"
};
